material Material.001
{
	receive_shadows on
	technique
	{
		pass
		{
			ambient 0.169109 0.000000 0.000000 1.000000
			diffuse 0.270574 0.000000 0.000000 1.000000
			specular 0.500000 0.500000 0.500000 1.000000 12.500000
			emissive 0.000000 0.000000 0.000000 1.000000
		}
	}
}
material Material.003
{
	receive_shadows on
	technique
	{
		pass
		{
			ambient 0.000000 0.178877 0.057660 1.000000
			diffuse 0.000000 0.286203 0.092256 1.000000
			specular 0.500000 0.500000 0.500000 1.000000 12.500000
			emissive 0.000000 0.000000 0.000000 1.000000
		}
	}
}
material Material.002
{
	receive_shadows on
	technique
	{
		pass
		{
			ambient 0.000000 0.500000 0.117217 1.000000
			diffuse 0.000000 0.800000 0.187547 1.000000
			specular 0.500000 0.500000 0.500000 1.000000 12.500000
			emissive 0.000000 0.000000 0.000000 1.000000
		}
	}
}
material Material.005
{
	receive_shadows on
	technique
	{
		pass
		{
			ambient 0.015185 0.000000 0.296093 1.000000
			diffuse 0.024296 0.000000 0.473749 1.000000
			specular 0.500000 0.500000 0.500000 1.000000 12.500000
			emissive 0.000000 0.000000 0.000000 1.000000
		}
	}
}
material Material.004
{
	receive_shadows on
	technique
	{
		pass
		{
			ambient 0.000000 0.296702 0.500000 1.000000
			diffuse 0.000000 0.474724 0.800000 1.000000
			specular 0.500000 0.500000 0.500000 1.000000 12.500000
			emissive 0.000000 0.000000 0.000000 1.000000
		}
	}
}
material Material.007
{
	receive_shadows on
	technique
	{
		pass
		{
			ambient 0.176435 0.176435 0.176435 1.000000
			diffuse 0.282296 0.282296 0.282296 1.000000
			specular 0.500000 0.500000 0.500000 1.000000 12.500000
			emissive 0.000000 0.000000 0.000000 1.000000
		}
	}
}
material Material.006
{
	receive_shadows on
	technique
	{
		pass
		{
			ambient 0.500000 0.500000 0.500000 1.000000
			diffuse 0.800000 0.800000 0.800000 1.000000
			specular 0.500000 0.500000 0.500000 1.000000 12.500000
			emissive 0.000000 0.000000 0.000000 1.000000
			lighting off
		}
	}
}
material Material
{
	receive_shadows on
	technique
	{
		pass
		{
			ambient 0.500000 0.000000 0.000000 1.000000
			diffuse 0.800000 0.000000 0.000000 1.000000
			specular 0.500000 0.500000 0.500000 1.000000 12.500000
			emissive 0.000000 0.000000 0.000000 1.000000
		}
	}
}


material Scene/Skybox
{
        technique
        {
                pass
                {
                        lighting off
                        depth_write off

                        texture_unit
                        {
                                cubic_texture skybox/Front.jpg skybox/Back.jpg skybox/Left.jpg skybox/Right.jpg skybox/Top.jpg skybox/Bottom.png separateUV
                                tex_address_mode clamp
                                scale 0.8 0.8
                        }
                }
        }
}



